ISSS608 - Take-home Exercise 2: Kick-starter 1: Building Network Data Models
…
Preparing Network Data for visNetwork

Instead of plotting static network graph, we can plot interactive network graph by using visNetwork package. Before we can plot a interactive network graph by using visNetwork package, we are required to prepare two tibble data frames, one for the nodes and the other one for the edges.

Preparing edges tibble data frame

In this example, we assume that you already have created a tidygraph model look similar to the print below.

mc2_graph

# A tbl_graph: 123 nodes and 146 edges
#
# A directed acyclic simple graph with 12 components
#
# A tibble: 123 × 1
  id                                             
  <chr>                                          
1 1 Ltd. Liability Co Cargo                      
2 Adriatic Catch Ltd. Liability Co Transportation
3 Adriatic Tuna AS Solutions                     
4 Amerigo Dockyard S.p.A. Distribution           
5 Aqua Adventures Carriers Seabed                
6 Aqua Azul LC International                     
# ℹ 117 more rows
#
# A tibble: 146 × 5
   from    to hscode  Year weights
  <int> <int> <chr>  <dbl>   <int>
1     1    74 306170  2028      68
2     2    75 306170  2028      30
3     3    76 306170  2028      22
# ℹ 143 more rows
…
